{
	"info": {
		"_postman_id": "b99e8dd0-8b5d-449f-8263-96536bd42c88",
		"name": "ChatApp-2023",
		"description": "To use these api we need to follow below mentioned steps:\n\n1. use set user API. (To make activate connection)",
		"schema": "https://schema.getpostman.com/json/collection/v2.1.0/collection.json",
		"_exporter_id": "24358835"
	},
	"item": [
		{
			"name": "setuser",
			"request": {
				"method": "POST",
				"header": [],
				"url": {
					"raw": "https://localhost:7279/api/Account/setuser?userEmail=hatish@gmail.com",
					"protocol": "https",
					"host": [
						"localhost"
					],
					"port": "7279",
					"path": [
						"api",
						"Account",
						"setuser"
					],
					"query": [
						{
							"key": "userEmail",
							"value": "hatish@gmail.com"
						}
					]
				}
			},
			"response": []
		},
		{
			"name": "GetAllUserMessagesAsGroupByMessages",
			"request": {
				"method": "GET",
				"header": [],
				"url": {
					"raw": "https://localhost:7279/api/Chat/GetAllUserMessagesAsGroupByMessages/hatish%40gmail.com",
					"protocol": "https",
					"host": [
						"localhost"
					],
					"port": "7279",
					"path": [
						"api",
						"Chat",
						"GetAllUserMessagesAsGroupByMessages",
						"hatish%40gmail.com"
					]
				}
			},
			"response": []
		},
		{
			"name": "messagesbyGroupName",
			"request": {
				"method": "GET",
				"header": [],
				"url": {
					"raw": "https://localhost:7279/api/Chat/messagesbygroup/development",
					"protocol": "https",
					"host": [
						"localhost"
					],
					"port": "7279",
					"path": [
						"api",
						"Chat",
						"messagesbygroup",
						"development"
					]
				}
			},
			"response": []
		},
		{
			"name": "SendGroupChatOnMail",
			"request": {
				"method": "GET",
				"header": [],
				"url": {
					"raw": "https://localhost:7279/api/Chat/SendGroupChatOnMail/hatish@gmail.com/development",
					"protocol": "https",
					"host": [
						"localhost"
					],
					"port": "7279",
					"path": [
						"api",
						"Chat",
						"SendGroupChatOnMail",
						"hatish@gmail.com",
						"development"
					]
				}
			},
			"response": []
		},
		{
			"name": "SendUserChatOnMail",
			"request": {
				"method": "GET",
				"header": [],
				"url": {
					"raw": "https://localhost:7279/api/Chat/SendUserChatOnMail/hatish%40gmail.com/raj%40gmail.com",
					"protocol": "https",
					"host": [
						"localhost"
					],
					"port": "7279",
					"path": [
						"api",
						"Chat",
						"SendUserChatOnMail",
						"hatish%40gmail.com",
						"raj%40gmail.com"
					]
				}
			},
			"response": []
		},
		{
			"name": "sendmessageToGroup",
			"request": {
				"method": "POST",
				"header": [],
				"body": {
					"mode": "raw",
					"raw": "{\r\n    \"id\": 0,\r\n    \"groupName\": \"development\",\r\n    \"content\": \"jasdnfkasd\",\r\n    \"messageFromEmail\": \"hatish@gmail.com\",\r\n    \"messageToEmail\": \"\",\r\n    \"timestamp\": \"2023-09-06T15:21:19.810Z\",\r\n    \"mediaPath\": \"\",\r\n    \"userName\": \"\",\r\n    \"isPrivate\": false,\r\n    \"mediaFileDetails\": null\r\n}",
					"options": {
						"raw": {
							"language": "json"
						}
					}
				},
				"url": {
					"raw": "https://localhost:7279/api/Chat/sendmessage",
					"protocol": "https",
					"host": [
						"localhost"
					],
					"port": "7279",
					"path": [
						"api",
						"Chat",
						"sendmessage"
					]
				}
			},
			"response": []
		},
		{
			"name": "sendPrivateMessage",
			"request": {
				"method": "POST",
				"header": [],
				"body": {
					"mode": "raw",
					"raw": "{\r\n    \"id\": 0,\r\n    \"groupName\": \"\",\r\n    \"content\": \"message here\",\r\n    \"messageFromEmail\": \"hatish@gmail.com\",\r\n    \"messageToEmail\": \"rohit@gmail.com\",\r\n    \"timestamp\": \"2023-09-06T15:21:19.810Z\",\r\n    \"mediaPath\": \"\",\r\n    \"userName\": \"\",\r\n    \"isPrivate\": true,\r\n    \"mediaFileDetails\": null\r\n}",
					"options": {
						"raw": {
							"language": "json"
						}
					}
				},
				"url": {
					"raw": "https://localhost:7279/api/Chat/sendmessage",
					"protocol": "https",
					"host": [
						"localhost"
					],
					"port": "7279",
					"path": [
						"api",
						"Chat",
						"sendmessage"
					]
				}
			},
			"response": []
		},
		{
			"name": "CreateNewGroup",
			"request": {
				"method": "POST",
				"header": [],
				"body": {
					"mode": "raw",
					"raw": "{\r\n  \"name\": \"test2\",\r\n  \"memebersList\": [\r\n   1, 2,3  \r\n   ]\r\n}",
					"options": {
						"raw": {
							"language": "json"
						}
					}
				},
				"url": {
					"raw": "https://localhost:7279/api/Group/CreateRoomWithMembers",
					"protocol": "https",
					"host": [
						"localhost"
					],
					"port": "7279",
					"path": [
						"api",
						"Group",
						"CreateRoomWithMembers"
					]
				}
			},
			"response": []
		},
		{
			"name": "ForwardThePrivateChatToSenior",
			"request": {
				"method": "GET",
				"header": [],
				"url": {
					"raw": "https://localhost:7279/api/Chat/ForwardThePrivateChat?UserEmail=rohit%40gmail.com&ClientEmail=raj%40gmail.com&SeniorUserEmail=hatish%40gmail.com",
					"protocol": "https",
					"host": [
						"localhost"
					],
					"port": "7279",
					"path": [
						"api",
						"Chat",
						"ForwardThePrivateChat"
					],
					"query": [
						{
							"key": "UserEmail",
							"value": "rohit%40gmail.com"
						},
						{
							"key": "ClientEmail",
							"value": "raj%40gmail.com"
						},
						{
							"key": "SeniorUserEmail",
							"value": "hatish%40gmail.com"
						}
					]
				}
			},
			"response": []
		},
		{
			"name": "GetGroupById",
			"request": {
				"method": "GET",
				"header": [],
				"url": {
					"raw": "https://localhost:7279/api/Group/2",
					"protocol": "https",
					"host": [
						"localhost"
					],
					"port": "7279",
					"path": [
						"api",
						"Group",
						"2"
					]
				}
			},
			"response": []
		},
		{
			"name": "GetGroupById Copy",
			"request": {
				"method": "GET",
				"header": [],
				"url": {
					"raw": "https://localhost:7279/api/Group/2",
					"protocol": "https",
					"host": [
						"localhost"
					],
					"port": "7279",
					"path": [
						"api",
						"Group",
						"2"
					]
				}
			},
			"response": []
		},
		{
			"name": "GetAllGroups",
			"request": {
				"method": "GET",
				"header": [],
				"url": {
					"raw": "https://localhost:7279/api/Group/Groups",
					"protocol": "https",
					"host": [
						"localhost"
					],
					"port": "7279",
					"path": [
						"api",
						"Group",
						"Groups"
					]
				}
			},
			"response": []
		},
		{
			"name": "GetAllUsers",
			"request": {
				"method": "GET",
				"header": [],
				"url": {
					"raw": "https://localhost:7279/api/User/GetUsers",
					"protocol": "https",
					"host": [
						"localhost"
					],
					"port": "7279",
					"path": [
						"api",
						"User",
						"GetUsers"
					]
				}
			},
			"response": []
		},
		{
			"name": "GetOnlineUsers",
			"request": {
				"method": "GET",
				"header": [],
				"url": {
					"raw": "https://localhost:7279/api/User/GetOnlineUsers",
					"protocol": "https",
					"host": [
						"localhost"
					],
					"port": "7279",
					"path": [
						"api",
						"User",
						"GetOnlineUsers"
					]
				}
			},
			"response": []
		},
		{
			"name": "GetOfflineUsers",
			"request": {
				"method": "GET",
				"header": [],
				"url": {
					"raw": "https://localhost:7279/api/User/GetOfflineUsers",
					"protocol": "https",
					"host": [
						"localhost"
					],
					"port": "7279",
					"path": [
						"api",
						"User",
						"GetOfflineUsers"
					]
				}
			},
			"response": []
		},
		{
			"name": "GetSessionTabInfo",
			"request": {
				"method": "GET",
				"header": [],
				"url": {
					"raw": "https://localhost:7279/api/User/GetOfflineUsers",
					"protocol": "https",
					"host": [
						"localhost"
					],
					"port": "7279",
					"path": [
						"api",
						"User",
						"GetOfflineUsers"
					]
				}
			},
			"response": []
		},
		{
			"name": "lastloginUserDetails",
			"request": {
				"method": "GET",
				"header": [],
				"url": {
					"raw": "https://localhost:7279/api/User/lastloginUserDetails",
					"protocol": "https",
					"host": [
						"localhost"
					],
					"port": "7279",
					"path": [
						"api",
						"User",
						"lastloginUserDetails"
					]
				}
			},
			"response": []
		}
	]
}